*** Life<Cell> 10x10 ***

Generation = 0, Population = 8.
----------
0---------
--------0-
0---------
-0-----0--
----------
----------
----------
0---------
-0-----0--

Generation = 1, Population = 17.
0---------
-0------0-
-------0-0
-------00-
--0---0-0-
-0-----0--
----------
0---------
-------0--
--0---0-0-

Generation = 2, Population = 23.
--------0-
--0-------
-0----01--
--0-------
---0-0--10
0---------
00-----0--
-0-----0--
0-0-------
-0-0-0-0-0

Generation = 3, Population = 41.
--0----0-0
---0--000-
0-0--01*0-
-----00000
0-----00*1
1--0-0-000
--0---010-
01----010-
-----0---0
--0-------

Generation = 4, Population = 31.
-0-----10-
0-0-0-----
----0--.1-
--0-0-----
10-0-0--.*
*0-----1--
--------1-
1*-----*--
000-0--0--
-0-0-0---0

Generation = 5, Population = 45.
----0-0*10
-0--10-0--
0--0-0-.-0
0--01---00
--0-0-00..
*-00-00--0
-------1-0
-.--0-0*--
--10--0100
-10-0-000-

Generation = 6, Population = 51.
-0-0101*-1
--0---01--
1-01-11.-1
10----0-1-
-01-10-1.*
.--101-101
0-00000*-1
-.0----.--
---1001-11
0*-0---1--

Generation = 7, Population = 56.
0-01--**--
0-10101-0-
*0-*-**.--
--001010-0
--*0--0*.*
.00--*0*-*
---111-*1*
1*10---.0-
00----*1**
1.-1-0---0

Generation = 8, Population = 39.
1-----**--
-0---1*1-0
*1-.-...11
1----1---1
--.--01..*
.1-1-.1.0*
0-0---0.**
-.---00.-0
1-----*-.*
**0----1-1

Generation = 9, Population = 42.
------.*11
011-1*.-01
*-0.-*.***
*---1*----
10.01--*.*
.-0-0.-.-.
-0-----...
-*1-011.--
*-1---*-.*
**11-----*

*** Life<Cell> 11x11 ***

Generation = 0, Population = 8.
-----------
-----0-----
0----------
-----------
-----------
--00-------
-----------
---------0-
00----0----
-----------
-----------

Generation = 1, Population = 30.
-----0-----
0---0-0----
-0---0-----
0----------
--00-------
-0110------
--00-----0-
00----0-0-0
110--0-0-0-
00----0----
-----------

Generation = 2, Population = 29.
0----------
---0---0---
0-0--------
--00-0-----
0----------
01--10---0-
00----0----
--00---0---
*-100---0--
---------0-
00----0----

Generation = 3, Population = 43.
-0-0---0---
----0-0-0--
--10-0-0---
-0-1--0----
1-000----0-
1-11*1--0-0
---00----0-
-----------
.--110-----
-0000-0---0
110--0-0-0-

Generation = 4, Population = 28.
0----------
-000-0---0-
--*-0------
---------0-
*0----0----
*---.*00---
0----------
-----0---0-
.1--*1----0
--11-------
**----0----

Generation = 5, Population = 53.
--00-0---0-
-1110-0-0-0
--*0-------
000-0-0-0-0
*10---1--0-
*---.*110--
10----00-0-
00---10-0--
.---*-0----
00**-00---0
.*-0-0-0---

Generation = 6, Population = 51.
----0------
0*--10---0-
00.-0------
-111--1--0-
.*-00---0--
.11-.*-*10-
*-0--01---0
--0--*10---
.-1-*--00-0
11.*0----0-
**01-10-0-0

Generation = 7, Population = 56.
00-01----0-
-*11*10-0-0
-1.-1-0----
-*--00-0--0
*.--1-1-10-
*---.*1**1-
.0-001-00--
00-0-.*----
.-*1*---10-
--..--000-0
*.--0*1--0-

Generation = 8, Population = 37.
1-0---0----
-.-*.----0-
0-.---1-0--
-*1111-----
**-0*-*----
*--1..*..-0
.1---------
1-0-0.*--0-
.-***1---1-
1-..-------
..-11*-----

Generation = 9, Population = 52.
-----0-0-0-
-*-..-----0
--.-1------
0.-***1-0--
*.01.0*0--0
*11***...1-
*--00----00
-0101..0010
.1*.**--1*0
-1*.-----0-
..0*-.1----

*** Life<Cell> 12x12 ***

Generation = 0, Population = 8.
------------
----------0-
------------
------------
0----0--0---
------------
--------0---
------------
------0-----
0----0------
------------
------------

Generation = 1, Population = 24.
----------0-
---------0-0
----------0-
0----0--0---
-0--0-00-0--
0----0------
-------0-0--
------0-0---
0------0----
-0--0-------
0----0------
------------

Generation = 2, Population = 26.
------------
--------0---
0----0--0---
----------0-
0-00--110-0-
------------
0----0--0-0-
0----0------
----0-------
0-00---0----
------0-----
0----0------

Generation = 3, Population = 56.
--------0---
0----0-010--
-0--0-00100-
--00-000-010
--1100*-1-10
--00-000----
10--0100---0
10---10-0-0-
--0----0----
--11----0---
--00--------
-0--0-------

Generation = 4, Population = 24.
0----0--1---
------0-----
--------*---
------------
-0*---.--0--
0----1----0-
----1-------
------------
0-1--0--0-0-
-0*-0----0--
--------0---
0----0------

Generation = 5, Population = 49.
-0--0--0-0--
0------0----
------00.0--
-00-----00--
-1.1-0.-1---
--0---0----0
1--0------0-
1-0-01--0-0-
-0*0--00-0-0
-1*-----0---
000-00-0----
-0--0-0-0---

Generation = 6, Population = 64.
--00-001--0-
----0---1---
000--01-.10-
0-1--00---1-
0*.---.1*--0
0--0---00---
*00--10-001-
*01-1*---01-
--.1--11--0-
-*.-0000---0
1----10-0---
-1-010-0-0--

Generation = 7, Population = 61.
-01101-*-0-0
00---0------
---0---0.*-0
--*00---0-*-
1.*1-0.-*0--
-0--01--1-00
.1----10-1-0
*1-0*.00--*0
0-.-00--0-1-
-..-11------
-0-00*-----0
---1--0-0-0-

Generation = 8, Population = 48.
-------.----
1----10-----
00-1-01-**0-
00.-1---1-*-
-..--1.1*110
-1--1---*-1-
.-00----0---
*--1*.----.-
1-.-1-----*-
0..-**0-0-00
1---1.--0---
-10*--------

Generation = 9, Population = 57.
0----10.----
*--00--0100-
1---0---*.-0
--*--00---.-
1*.-0-.*.--1
0-------.0*-
.-1-1--0111-
.1--*.--0-.-
-0.---1-00*-
-*.1*.1-1--1
*-0-*.001000
-*-*----0---

*** Life<Cell> 13x13 ***

Generation = 0, Population = 8.
-----0-------
0------------
---0----0----
-------------
-------------
-------------
-------------
0----0-------
-------------
-------------
-------------
-------------
-------0-0---

Generation = 1, Population = 25.
0---0-0------
-0-0-0--0----
0-0-0--0-0---
---0----0----
-------------
-------------
0----0-------
-0--0-0------
0----0-------
-------------
-------------
-------0-0---
------0---0--

Generation = 2, Population = 23.
-----0-00----
0-0----------
-0----0---0--
0------------
---0----0----
0----0-------
-------------
0-00---0-----
-------------
0----0-------
-------0-0---
-------------
-----0-----0-

Generation = 3, Population = 62.
0-0-0--110---
-0-0-0000-0--
0----0-0-0-0-
---0--0-0-0--
--0-00-0-0---
-0-00-0-0----
--00-0-0-----
--110-0-0----
--00-0-0-----
-0--0-00-0---
0----00---0--
-----0-0-0-0-
----0-0---0-0

Generation = 4, Population = 30.
-0-0----*1---
0-0-0--------
----01-1----0
0----0-------
-----1-------
0------------
---1----0----
-0*-1----0---
-------1-0---
-------------
-------0-0---
0----1-------
---0-0-----0-

Generation = 5, Population = 61.
--0----1.*0--
-0-01--000--0
--00----0--0-
-0----00----0
----0*0------
-0-0-0--0----
00-----0-----
01*1-0-0-10--
-00-0-0--10--
-------------
0----00---0--
-0-00*00-0-0-
0-0--10---0-0

Generation = 6, Population = 57.
----0-0*.*100
0---*00-1----
-01---011-0-0
0--00--1-----
----1.--0---0
-1--01---0---
-1----01-00--
--.*1-01---0-
---0-0--0--0-
000-00---0---
---0---------
0-01-.-1-----
-0---------0-

Generation = 7, Population = 76.
0--010-***--1
--00*-1-*--0-
01*----*-----
---1-0-*0-0--
00---.-----0-
0*00-*-0-1--0
0*01------1--
-1***0---1-10
00-1-1----010
1-1-1-0---00-
-001-0-0-0---
-01-0.0-0--0-
---0---0--0-0

Generation = 8, Population = 42.
-0--*10***1--
---1.0--.-0--
1-.001-.1-00-
-------*1----
-----.--00---
1.1--.-------
-.-*---1-0---
0*...-0-0----
---*-*-------
*-*----------
---*----0----
0----*-------
-0-------0-0-

Generation = 9, Population = 61.
0-0-**-***-0-
000*.--0.----
-1.---0**--10
0--1000**-00-
0-0--.---10--
-.---.-00----
-.-.0---0-1--
1.*.*--1-----
-0-.-.--0----
.-*0-0--0----
---.00-0-0---
---10.0-00-0-
--0--1--0---0

*** Life<Cell> 14x14 ***

Generation = 0, Population = 8.
--0-----------
--------------
--------------
--------------
----0-----0---
--------------
--------------
--------------
---0----------
--------------
0------0------
--------------
--------------
----0--0------

Generation = 1, Population = 28.
-0-0----------
--0-----------
--------------
----0-----0---
---0-0---0-0--
----0-----0---
--------------
---0----------
--0-0---------
0--0---0------
-0----0-0-----
0------0------
----0--0------
---0-00-0-----

Generation = 2, Population = 32.
0-0-0---------
--------------
--0-0-----0---
--------------
--0---0-0---0-
--------------
---00-----0---
--------------
00---0-0------
--------------
0-00-0---0----
----0--1------
0------1------
--0-0110-0----

Generation = 3, Population = 69.
-----0--------
0---------0---
-0---0---0-0--
----0-0-0-0-0-
-0-0-0---0-0-0
--000-0-0-0-0-
--0110---0-0--
00-000-0--0---
110-0---0-----
-000---0-0----
--110-000-0---
--0---0*00----
-00--0--00----
00--1-----0---

Generation = 4, Population = 27.
0---0-0---0---
--------------
--0-----------
--------------
0-01--0-0-----
--------------
0------0------
--------------
----1--0--0---
----0--1------
--**1------0--
----0--.------
---0----------
1--0----0--0--

Generation = 5, Population = 71.
-0-0---0-0-0--
0-0-0-0---0---
-0-0----------
0--0--0-0-----
--1*00---0----
--00--000-----
-0----0-0-----
0---0-----0---
---0*00100-0--
--0--00*0-00--
-0..*0-0--0-0-
--0010-.---0--
0-01----0--0--
-0011--0-00-0-

Generation = 6, Population = 68.
--0-------0-0-
--------------
0-01----0-0---
--------------
00-.-1000-0---
--------------
---11010100---
----1--0------
1--1.11*11-10-
----011.-0----
0-...101-01--0
0--1*-0.0--1--
-01*00-----1--
-11**11-0110-0

Generation = 7, Population = 79.
-0-0-----0---0
0--0----0---0-
--1*0--0---0--
-000-000------
111.0*--1--0--
00-00----0----
--0**--1--10--
0--0*00-0-000-
-10-.-*.---*10
----1-*.---000
10.*.--*0-*-0-
1---.-1.---*00
--*.--0--0--00
1-*..**-1-----

Generation = 8, Population = 42.
---10-----0---
--------------
0--.1--1--0---
--------------
---.-.----0-0-
----1--0------
--1..---------
--0-.--0------
-*1-.-*.1--.--
0-0---*.0-----
-1...-0*1-*--0
*-01.0*.00-.--
-0..---1--0---
--...**-----00

Generation = 9, Population = 72.
--0*10---0-0--
0--0---0------
-0-.-00-00-0--
0---0--0----0-
---.0.-0-0---0
--00-00-0-0-0-
-0**.---------
---0.---------
-.*1.1*.*1-.--
--10-1*.-00--0
1-.*.-1.*0.00-
*-1*.1..-10.-0
--*.--0----100
-1....*---1011

*** Life<Cell> 15x15 ***

Generation = 0, Population = 8.
---------------
---------------
---------0-----
-------0-------
---------------
------------0-0
---------------
------------0--
-------0-------
---------------
--------------0
---------------
--0------------
---------------
---------------

Generation = 1, Population = 26.
---------------
---------0-----
-------00-0----
------0-00-----
-------0----0-0
-----------0---
--------------0
-------0---0-0-
------0-0---0--
-------0------0
-------------0-
--0-----------0
-0-0-----------
--0------------
---------------

Generation = 2, Population = 26.
---------0-----
-------0-------
-------1---0---
-----0---1--0-0
---------0-----
-------0--0----
-------0-------
----------0-0--
-----0---0----0
------------0--
--0----0----0-0
---------------
0---0---------0
---------------
--0------------

Generation = 3, Population = 71.
-------00-0----
------0100-0---
-----00*000---0
----0-000*0----
-----0-001--0-0
------010--0---
------010---0--
-----0-0-----00
----0-0-0----0-
--0--0-0-0-010-
-0-0--0-0--01--
0-0-0--0----0--
-0-0-0-------0-
0-0-0---------0
-0-0-----------

Generation = 4, Population = 31.
---------0-----
------------0-0
-----1-.-----0-
---0-----.-00--
-------1-------
--------1-0-0-0
---------0----0
-------10-----1
--00-------0---
------------*-0
----------0-*--
------------1--
0-----00-------
---------------
--0-----------0

Generation = 5, Population = 75.
--------0-0-0-0
-----0---0-0-0-
---00-0.---00--
--0-00-0-.011--
---0--0---00--0
---------0----1
-------10---00-
--00--0*1--0-0*
-0110--00-0----
--00------0-*--
---------0--*00
0-----00--00*0-
-0---0110---0--
0-0---00------0
-0-0---------0-

Generation = 6, Population = 71.
-----0-0-0-0-0-
---0------01---
---1---.-0-1---
-0---1--0.---00
-------------01
---0--01---00-*
--00--------1-0
-----01.*0--0-*
01--10----1-000
-------00-1-*-0
0-00--000-0-.11
----------1-.--
0---01--100-1-0
------------0--
--0-0-00----0--

Generation = 7, Population = 124.
---00-----01--0
--0100-1-01*00-
-00*01-.--0*000
0-000-00-.-11--
-0-0-0010--0--*
---1001*1-01-0*
-01-00-100-----
0000--*..1-0-0*
1*11*--0--*-1-1
-00000------*--
--110011---0.*-
--000000---0.0-
-0-01*11*---*--
0-0--0000000-00
-0----110--010-

Generation = 8, Population = 55.
-------0-------
---------1-.1-0
-1-.---*---.-11
---------.-*---
--0------1----*
----1-*.*01--1*
--------1------
----0-*..*0-01*
-.--.---0-*0*0*
----------1-*-0
--*---*-0-01.*1
-------1--11.10
----*.--.-00.00
--------------1
-------*-------

Generation = 9, Population = 81.
------0-00--0-0
-0------0-1.-01
0-0.--0.00-.-*-
-00----0-.0.10-
-0-00-0--*-0--*
--01--.**1*10**
-------1*0--1--
---0--.**.-0-**
-.--.-00-0.-.1.
--0---0--0--.--
-0.1-0.1--1-..*
--0-0----0**.*1
---0..-1.0--.-1
----0--0--00--*
------1.0-----0

*** Life<Cell> 16x16 ***

Generation = 0, Population = 8.
---------0------
-------0--------
0---------------
----------------
----------------
---0------------
-------------0--
----0-----------
----------------
-------------0--
-0--------------
----------------
----------------
----------------
----------------
----------------

Generation = 1, Population = 30.
-------00-0-----
0-----0-00------
-0-----0--------
0---------------
---0------------
--0-0--------0--
---00-------0-0-
---0-0-------0--
----0--------0--
-0----------0-0-
0-0----------0--
-0--------------
----------------
----------------
----------------
----------------

Generation = 2, Population = 30.
0------1-0-0----
-----0---1------
0-0------0------
---0---0--------
0------------0--
-0--10----------
-----------0---0
--01--0------1--
-0-----------1--
----0------0---0
---0------------
-------------0--
-0--------------
----------------
----------------
----------------

Generation = 3, Population = 83.
-0---00--1--0---
--0-0-000-00----
-----0-0010-----
----0-0-00---0--
---000-0----0-0-
--00*10----0-0-0
-000000---0-000-
--1*00-0---00*00
0--00-0----00*00
-0---0----0-000-
--0--------0-0-0
-0-0--------0-0-
0-0----------0--
-0--------------
----------------
----------------

Generation = 4, Population = 27.
0----1-------0--
-------1---1----
--0-0----*---0--
----1-----------
---------0------
----.--------1--
01-------0-----0
0--.----0----.--
-------------.--
---0-----0-----0
-0---0-------1--
----0-----------
----------------
-------------0--
-0--------------
----------------

Generation = 5, Population = 80.
-0--0-01---00-0-
0-0-000-010-0---
-0--10-00.000-0-
--00*0-------0--
----0---0-0--0--
00--.-------0-00
-*0-------0--00-
1--.---0-----.-0
0--0----00---.-0
-00-00--0-0--00-
0-00--0--0--0-00
-0-0---------0--
----0--------0--
-0----------0-0-
0-0----------0--
-0--------------

Generation = 6, Population = 77.
---011-*-1-1---0
----11-------0--
--0-*101-.---0-0
--1-.-00---0-1--
000-1--0---0-1-0
1---.---0--0---1
0.10---0-0-0-1-0
*-1.--0--00--.-1
1----0---1---.-1
01--11-01--0-1-0
-------0---0---1
--01--0--0---1-0
-----0-------1--
----0------0---0
---0------------
-------------0--

Generation = 7, Population = 106.
--01*--.----000-
--0-**---1-1010-
-01-**1-0.-00---
0--0*--10-01--0-
-----0-1--0--*-1
---0.--0--0-0-0-
-.-10---0101----
*-**----011--.0-
--0--1-0-*-0-.0-
-*00*---*-01----
000000-1-0010-0-
-01*0---0-000*-1
--00-----0-00*0-
----------0-000-
--0--------0-0-0
---0--------0-0-

Generation = 8, Population = 56.
-0--*--.-1---1-0
---0..-------*-0
-1-0..*11.-1----
---1.0----------
0--------0---*--
--01.101---0-1--
0.-*10---*-*----
.-*.-0-----0-.11
1--0-----.-10.11
-.-1.1-0.--*----
1----1---1---1--
---.---------.--
-------------.--
---0------------
-0-----------1--
----0--------0--

Generation = 9, Population = 118.
0-0-.1-.0-0-0*-1
--01*.0101-10.-1
0---..*-*.0-00-0
001**--100-1-1--
-00---010-000.0-
-01-.--*0-01-*0-
-*1.-1-00.-*0100
.0*.-10--11--*--
-0-10--0-.0*1*--
-.0*.*--.00*-100
-0-00*010-010-0-
0--.-0---0---.--
---0---------.--
-00-0--------0--
0-000-------0*0-
-0-0-0------010-

*** Life<Cell> 17x17 ***

Generation = 0, Population = 8.
-----------------
-------------0---
-----------------
-----------------
----0------------
-----------------
-----------------
--0----------0---
-----------------
--------------0--
-----------------
-0---------------
--0-------0------
-----------------
-----------------
-----------------
-----------------

Generation = 1, Population = 28.
-------------0---
------------0-0--
-------------0---
----0------------
---0-0-----------
----0------------
--0----------0---
-0-0--------0-0--
--0----------00--
-------------0-0-
-0------------0--
0---------0------
---0-----0-0-----
--0-------0------
-----------------
-----------------
-----------------

Generation = 2, Population = 30.
-----------------
-----------0---0-
----0------------
-------------0---
--0---0----------
--0----------0---
----0------------
0---0------0--10-
-----------------
-00---------01--0
--0-------0------
---0----------0--
0---0---0---0----
-0---------------
--0-------0------
-----------------
-----------------

Generation = 3, Population = 95.
-----------0---0-
----0-----0-0-0-0
---0-0-----0-0-0-
--0-0-0-----0-0--
-010-0-0---------
-0100-0-----0-0--
0-0010-----0-000-
-0-010----0-00*10
000-0------000000
01-0------001*00-
--1------0-0000-0
0-------0-0-00-0-
-----0-0-0-0-00--
----0---0-0-0----
---0-----0-0-----
--0-------0------
-----------------

Generation = 4, Population = 28.
----0------------
---------0---0---
-----------------
--1----------0---
0-------0--------
-------------01--
-----------------
01----0--0----.--
--1-1-----0------
----------1--.--0
-----------------
-00--0-------1---
0-------------1--
--------------0--
-----------------
-0---------------
--0-------0------

Generation = 5, Population = 79.
---0-0---0---0---
----0---0-0-0-0--
--0------0-------
00-0----0---0-0--
-01----0-0----0--
0-------0---01*0-
00----0--0---00--
1*--10-00-----.--
0----00---10----0
--0-0----0*0-.-0-
-01--0----0--0--0
-1100-0-----0----
--0--0--------*0-
0------------010-
-0------------0--
0---------0------
---0-----0-0-----

Generation = 6, Population = 94.
--0-0-0----------
--0----0-----0-0-
0---0---0--------
1---0----0-0--10-
0-*---0---0------
101---0--0-01*.10
1-0-1---0-0------
*.00*--11-00-0.-0
1-1-1-1-0---0----
0-1--00-01.-1.0-0
0-*-0-----1---0--
0---1--0--00--000
0-1---------0-.-0
--0--0------01--0
0-0-------0---1--
---0----------0--
0-0-0---0-0-0----

Generation = 7, Population = 142.
-01----------0-0-
0010--------0---0
100010-----0-00--
-010100---0-00*10
-0*00010-0-0000-0
*-*00010---1-..*1
-0-0*00-10100--0-
*.1-*0-**--10-.1-
---0*0*0--1-1-0--
---001---*.0*.1--
--.-1-000-*-00---
-1-0*00-00-1-1---
1-*000-0--0-1-*--
-0-00-0---00-*-01
--1--0---0-00-*00
--0-----0---0010-
---0-0-0-----00--

Generation = 8, Population = 44.
-----------------
-----0-------00--
----*------------
-1------------.--
--.-------0-11---
*-.---------1...-
1---.--------00--
.*--.1-..-0-10**0
1---.-.-------1--
--1---0--*.1..*0-
-0*0------.------
--1-.1---1---*---
--.-------1---*-0
-------------.---
--*-------0---.--
-01----------1---
-----------------

Generation = 9, Population = 92.
-----0-------00--
------0-----0110-
-0-0.--------00--
1-1-1-----0-00.--
00.------0---*0--
.0.-------01*.*.-
*---.0----1-0---0
**1-.-0..0--*1..1
--1-.0.--0101--00
0-*--1-00..-..*10
01.1100---*0-000-
--*-.-0-0---0.--0
--.--0-----0--.--
--0----------.1-1
--*0-----0-0-0.--
01-0------0-0-1--
-00----------0---

*** Life<Cell> 18x18 ***

Generation = 0, Population = 8.
------------------
------------------
------------------
------------------
------------------
--------------0---
------------------
------------------
--------------0---
--0---------------
---------0---0----
---00-------------
------------------
------------------
------------------
------------------
------------------
--------------0---

Generation = 1, Population = 31.
------------------
------------------
------------------
------------------
--------------0---
-------------0-0--
--------------0---
--------------0---
--0----------0-0--
-0-0-----0---00---
--000---0-0-0-0---
--0110---0---0----
---00-------------
------------------
------------------
------------------
--------------0---
-------------0-0--

Generation = 2, Population = 26.
------------------
------------------
------------------
--------------0---
------------------
------------0---0-
--------------1---
--0-----------1---
---------0--01--0-
0--1--------------
-------0------10--
-0---10-----------
---------0---0----
---00-------------
------------------
--------------0---
------------------
------------0-0-0-

Generation = 3, Population = 86.
------------------
------------------
--------------0---
-------------0-0--
------------0-0-0-
-----------0-000-0
--0---------00*00-
-0-0-----0--0-*00-
0-00----0-001*-0-0
-00-0--0-0--00000-
00-0-0--0----0*10-
0-0-1*1--0---000--
-0-0000-0-0-0-0---
--0110---0---0----
---00---------0---
-------------0-0--
------------0---0-
-----------0-----0

Generation = 4, Population = 28.
------------------
--------------0---
------------------
------------------
--------------1---
--0-------0-------
---------0---1.---
---10---------.---
----------1--.----
0-----0-------1---
-----1---0---1.--0
1----.-00---------
--------------1---
--1-----------0---
---------0---0----
---00---------0---
------------------
----------0-------

Generation = 5, Population = 82.
--------------0---
-------------0-0--
--------------0---
--------------0---
--0-------0--0-0--
-0-0-------0-00---
--000---0---0-.---
--0*10---00--0.---
0--00-0--0-0-.0---
-0-----0-00----0-0
----0--0--0-0-.-0-
-0---.111----00--0
0-0----00----0*0--
-0-1-----0----10--
--000---0-0-0-0---
--0110---0-----0--
---00-----0---0---
---------0-0------

Generation = 6, Population = 68.
------------------
------------0---0-
--------------1---
--0-------0---1---
---------0--01--0-
0--1----0---0-1---
-------0--0--1*---
00-.-1----1---.---
-----0--0---1.---0
--01---1----0---0-
---0-1----1---*--0
----1.*--00-------
------------0-.-00
---*---00---0-*-0-
-------0------10--
-0---10---0-0-0-0-
---------0---0----
---00---0-0-0-0---

Generation = 7, Population = 157.
------------0---0-
-----------0-000-0
--0-------0-00*00-
-0-0-------00-*00-
0-00-------0-*10-0
-00-0-----001-*00-
-0-0-00--010-**0--
110.1*0000*000.--0
0000010--010*.----
-01-0-0---001010-0
---10--0--*001.1--
-----*.111-00-0-0-
---00-00000010.0-1
--1.1-0-10-01-*01-
-0-0-0-1--0--0*10-
0-0-1*1------010-0
-0-0000---0-0-0-0-
--0110-0-0---0-0--

Generation = 8, Population = 50.
--------------0---
--0-----------1---
---------0---1.---
---10---------.---
-------------.-1--
------0-----*-.-1-
-----------1-..--0
---.-.----.-1-.00-
-----*1-----..00--
-----01---1--1----
-0-*---1--.---.*-0
----1*.**--11-----
---1-0-1-----1.1--
---.*01-------.---
-----1--------.---
-----.------------
--------------1---
--1**-0-------0---

Generation = 9, Population = 92.
--0----------010--
-0-0-----0----*0--
--000---0-0-0-.---
--0*10---0---0.0--
---00-0-----0.1---
-----0-0----.0.---
------0---1-0..00-
---.-.0---.--0*-1-
----0*-0--1-.*1---
-0-10----0-01----0
0--.---*--.001..--
-0-1**.**10**----0
--0---0*---0--.-0-
---..-*------0.0--
-----*--------.---
-----.--------1---
--000-0------0*0--
-0**.--0-----010--

*** Life<Cell> 19x19 ***

Generation = 0, Population = 8.
-------------------
-------------------
-------------------
-----------0---0---
---0----00---------
-------------------
-------------------
------------0------
-------------------
-------------------
-----0-------------
-----------0-------
-------------------
-------------------
-------------------
-------------------
-------------------
-------------------
-------------------

Generation = 1, Population = 32.
-------------------
-------------------
-----------0---0---
---0----000-0-0-0--
--0-0--01100---0---
---0----00---------
------------0------
-----------0-0-----
------------0------
-----0-------------
----0-0----0-------
-----0----0-0------
-----------0-------
-------------------
-------------------
-------------------
-------------------
-------------------
-------------------

Generation = 2, Population = 30.
-------------------
-----------0---0---
---0----00---------
---------1-------0-
-0---001--11-------
-----------00--0---
---0----00---------
----------0---0----
-----0-------------
-----------00------
---0---0-----------
---------0---0-----
-----0-------------
-----------0-------
-------------------
-------------------
-------------------
-------------------
-------------------

Generation = 3, Population = 98.
-----------0---0---
---0----000-0-0-0--
--0-0--01-00---0-0-
-0-0-000-*-0----0-0
0-0-01-*1-*----0-0-
-0-0-00000--100-0--
--0-0--011-00-00---
---0-0--0--0-0-0---
----0-0---000-0----
---0-0-0--0110-----
--0-0-0-00-000-----
---0-0-00-0-0-0----
----0-0--0-0-0-----
-----0----0-0------
-----------0-------
-------------------
-------------------
-------------------
-------------------

Generation = 4, Population = 26.
---0----00---------
-------------------
-------------------
-------1-.-10--0---
----1*-.--*-00-----
-------------------
-----0-------------
--------1------10--
---0----00---------
-------------------
-0-------1---------
-------1----1--0---
-------------------
-------------------
-----0-------------
-----------0-------
-------------------
-------------------
-------------------

Generation = 5, Population = 81.
--0-0--0110--------
---0----00---------
-------0---00--0---
----000-0.-*--0-0--
---0*.0.-1.1-100---
----0-----0-10-----
----0-0-1------00--
---0-0-0*-----0*10-
--0-0--0-10----00--
-0-0----0----------
0-0----00-0-0--0---
-0----0-00-0-00-0--
-------0----0--0---
-----0-------------
----0-0----0-------
-----0----0-0------
-----------0-------
-------------------
-------------------

Generation = 6, Population = 85.
-0-0-001**10-------
-------0---00--0---
---000--100-10-----
-------1-.0*--1--0-
--01..1*--.*0-11---
-----0--0--0*---0--
----10-0*10-00-----
------0-.-0--01.-10
------01-*10-------
-------01---1---0--
-------111-0-------
-----0---10--11--0-
-0---0---0---------
-------0---00--0---
---0---0-----------
---------0---0-----
-----0-------------
-----------0-------
-------------------

Generation = 7, Population = 152.
0----1-***-----0---
-0--0--10-0---0-0--
--01-100*----1-0-0-
--0-00-*-.-.0-*-0-0
-01*..**--..---*-0-
--00-1-01---.-0--0-
---0*-01*--0----000
----0-10.0----*.1*1
-----0--0**1-00-000
-------1-001-0-0-0-
-----00-*-0--00-00-
-0--0101-*1-1**00-0
0-0-010001-00000-0-
-0-0-0010001100-0--
--0-0-0100-000-0---
---0-0-00-0-0-0----
----0-0--0-0-0-----
-----0----0-0------
-----------0-------

Generation = 8, Population = 49.
-------*.*---------
-----0-*10-0-------
---*----.00--------
----1--.-.-.-0*----
01-.....--..0-1*01-
---10--1-0-0.0-----
----.0--.-0-0--0---
----10--.1----*.*.*
-------11..----0---
-------------------
-0------.----1-----
---0-----.-0-..1---
---0----1*---------
-------------------
-------------------
------------1------
-------------------
-------------------
-----0-------------

Generation = 9, Population = 105.
-----10*.*10-------
---00--*-10-0------
--0.-1-0.-1--10----
00---0-.-.0.-1*-00-
1*1**...-1..---*-*0
000*1-0---0-.---00-
---0.101*1-0------0
---0*-10*---00*.*..
----000**..-------0
-0-----11----0-0---
0-00----.--00-00---
-0010---0.1-1..-0--
--010--0*.00---0---
---0----00---------
------------0------
-----------0-0-----
------------0------
-----0-------------
----0-0------------

*** Life<Cell> 50x50 ***

Generation = 0, Population = 48.
------------------------0-------------------------
----------0-----------------------0---------0-----
---0----------0-------------------------------0--0
----------------------0-------------0-------------
--------------------------------------------------
-------------------------------0------------------
--------------------------------0-----------------
------------0-------------------0-----------------
---------0----------------------------------------
--------------------------------------------------
--------------------------------------------------
--------0-----------------------------------------
--------------------------------------------------
---------------------------0----------------------
--------------------------------------------------
--------------------------------------------------
----------------------------0---------------------
-----------------------0-----0--------------0-----
--------------------------------------------------
--------------------------------------------------
--------------------------------------------------
--------------------------------------------------
--------------------------------------------------
--------------------------------------------------
--------------------------------------------------
----0---------------------------------------------
-------------------------0------------------------
--------------------------------0-----------------
----------------0---------------------------------
------0-------------------------------------------
----------------0-0-------------------------------
----------0------0--------------------------------
---------------------------0----------------------
--------------------0-------------------------0---
--------------------------------------------------
------0-------------------------------------------
--------------------------------------------------
--------0-----------------------------------------
-0------------------------------------------------
----0---------------------------------------------
--------------------------0-----------------------
--------------------------------------------------
------------0-------------------0-----------------
--------------------------------------------0-----
---------------------------0----------------------
----------------------------0---------------------
------0--------------------------0----------------
-----------0----0-------------------0-------------
--------------------------------------------------
--------------------------------------------------

Generation = 10, Population = 643.
---0--00--1--0.-.-1---11*1*------0----0--0--.*..*1
0---0----1*1--.-1---0---.-0-..*.**--0-1-00..**.-11
-0-011-11-*-*0100----0-1*1*--0.-10--0--1*--..-1*.-
--0---1---.0*1*-1-1-0--0*-0**-0-10-10-10--*1..0---
-0-0-00--0-1-1--0-.----1*0.1--10*011--0-00--0---1-
----0---------1-----00*-11.011-*0*-.1---001--1*0--
-0-0---------.1-.0--------0--1.1.-.---0-.-00.0-.-1
--0---0-------.---0----1.11-*..*-*1---01--0-------
--------------11---0--0-*-0-.-.0*1-10---1-----0--0
0---0---0---0---0---001-00-0--1..*------0---------
-----0------0---10------0----1*..010--------0--110
0-0-------0---1---000--10----110*011--0-----------
---0----------0-----------------.-------------0--0
0-----------0---00---00------0-*1---10------------
---------0----------0---------0-.-0-0-------------
----0-----0---00---0-0--------0-.-0010----------0-
-------0---0------0---0--0------1-0---0-----------
--0---0-0---00---0-0---0-----0---001-.10------0---
---------0------0---0--0---0--------1-------------
----0-----0----0-----0-----0--01--0-00----------0-
--------------0-0--------1------------------------
----0-----0------0-------.-.-0--1-----------------
--------------0---0-0--.---11---------------------
--0---0-0------0---00--1---1-0--------------0-0---
----------------010------01--10--0----------------
0---0-0-------0--10--11-10-1---0--------0-0-0-0-0-
--------0------0---1----1--00--0---0--------------
0-0-0-------1-0-----1-01--0--0--------0---0-0-0---
-0----1-.-----1--0--.-0----------0----------------
0---0----11-01.---00----10--------------0---------
---0--0---1---.110*-.11-.-0-0------0--------------
--0---000---1.-1-1-.-*-.---00---------0-------0---
-0------0-0-*110.--*0*-0001-1---00---0------------
0---0-0--00--10-0.-1-----1*---0-1---0---0-------0-
----------0-.-10*0.0-0-0--1---0---00--------------
--0-0-0-----------------------0-.-0---0---0-------
-----01--0--.-11.1-------.-..1--10----------------
----0---0-10-----*1-------0---0-0---0-------0-----
---01------11-1-----0----------0--10--------------
----0-*0--.**-011-101------10-----1---0-------0---
----01--*01-1-----0-----111.-1--01--*---0---------
--0--01*.-1-----.01-.-0--0--.-------*-------0-----
--0--11*..-0-------1----00-.--0-0-1.--0---0-------
----1--0.*-0-------------1-0-0-0-01-.-0-----------
01--0-*0-0--1--0.---00-01.110-0-1-1--1--00--------
---01---11-..-0*---0--0-0-*0-0-0.*-11-------0---0-
*.11*---00--.0--0--1---0-1*----0-------0---0------
-11--1--0*-......1*-100---1--0-0.*-0------0-0-0---
00----0-----..*0--------1---100-100------0--------
---00---0-0*.-111--0----0------0-0--------0---0---

Generation = 20, Population = 969.
-0-0**.-**.-...***..11....*1..-.***-.1.....-......
--**.*-***...-.*.0...**-****...*....**.-......***-
-..*..1..*..******1.**...-.---*...*--***.....*.**.
--0-*-*-*.*-.*.-.-...-...1*...*-..0*-..*.0..**..*.
0-*--*-.-1..-...*0...*...-..*1-..1*...--*.*0**.-..
--*-10.1..**-**1.-...0.....*..**.*..*.-.1......*..
10-.-**.1.0.-....1100-...*.**..*.*..1*.-..*......-
0-01--*11-**0*.-...110-..*.........-.*...-*1.*.-0.
-01--*1-0*.-***...-.*...*-.1.-.........*.**11.***-
0--0-00-0-.*.11.*-*-*1..*..........-.--.*.*.**0*--
----0*0-1.*-1--.-*11*11*-*-..**.*..1-....0.-*--.1.
-----10-0--1--..1-.0..1*0.-0.........11.**0-0.11-0
-----0-0-*1--*.-0**.*--0.**-1..-*.-.***.-0-*-.-.-*
--0-0-0-1..111-11*--0**1*..**-...-.11.-.-11-01*-00
---0-----1-10..-*1-0100**1.---**.**-*-.1*0--*0-.-1
------*-*0.0-----.-*.---..---.*-.*10****.*0-.*----
---0----0-0.-..-----11-*---..-0**..-*..**---.0--00
---1--.1.*-0*.1-**-*11-.-.1*1..**...-.**11*.--1*01
-0-----11-01.*.-0--1.--..-0.1110.-...**0*-*-0-*..-
--0-0----1-*-*00-10*0.-1-...*-*...---..0*-1---*---
------0--0-*.*0-1**--*1.**..*-0*.*0*.**-01--1-*---
----0-10--0-.---*...*...-...*.-*.-*..*11*---001---
-0-0---**0.1-..**0***0-*1...*0-0---0*10000----0--0
0-----.1.--1**---*..**-.*...*.-1.-*101------0---0-
1---.-...1--0.***..*0*0.0..-1..-.1*---------------
----.-.1.10.*.*0*..*....-*..*.0*1-----------------
000*.*1-*-1....-.-...*1-.-1..0*1.-0-00-------0----
-0*1.-1..*.1.**--*-*.**..*.011-0--*-0---0---0-----
1000-.1-.1.1**.*-0.*.1*0-1*..1-1**--1------0------
--0--110.**0.**.1*.......*1*..*-*011--0-----0-----
*..-...1.-.*.*****.*..*****-.0-*11--.10--0--------
01--..---**-*.-.1...1...-*0**.-0**1-110-0---0---0-
0-*-0-*.*0.1****....*.1....*****.-00-100-------0--
0--0*-.1.-..*......-...-...*.-.-.*1-*1*10-0-----0-
-001**-.*-...1.**.*.**.**.*11**-...-*0.-1---------
---0.-..0.*-1-.1*-1.*-.-.-1*-**..***-.0-10--------
--.*.*1*.*.-***.**...*.01***..**.*.1-.**.--0------
--*1....-.*..*-.-..1...-*-.*.-*-.-*01-.-.1-0------
.1.*.*-1-...*..-.**1.-*--.*-1...*.1.-*01*0*-1---0-
.-.*.-.....**.-........-.*.*.**1-1*-*.-0*--0-1----
*-*0....*.**...1.-.-.0.......1*...**....1-*-*-1---
*-**1..*....-**.*....1-*.-1...1.-.*..**.1..--0*-1-
*..*1.*.****-.-1**...0.*.*....0.0.....*-....*1--00
0-**......1...*...*..--*..*..-.0...1*.1*-.*1.---1-
.*-.*..--.*-..*..-*0..0.*..-.-*.-.*..*-.-.-1*--1--
...-.-..*....*.*-..1*--*1..-*1*...**...***1--00-*-
......-*.***.1*.......1**..-1*1*..111.0...0*-0-01-
...-.---0..**...*.******...-*.1.***1..1*.-1-0-0-0-
..-.-.1-.**...**-...0****.*.***....-.10----0------
1***.**11*...**.**-1.-1-*.1.-*-.***.***0000-0---0-

Generation = 30, Population = 832.
*--1**.-**.........***.....-..-....-.......-......
*.....***.*........*...*...............**.......**
.*...*..*..*............***--.**.**0..*..*.....*..
.*...-****.*............*..*.*........*.*1.....*.*
.**.**1.**.*.............1.****..1*...****.-..*1*.
-1*..**1.*.......-.*..........*.*..*..........**..
.**.-.....*.......*.-..*.......**......*...**.....
..-*.....**....-...**-*....*.*..****...**...*.*1..
....*..1.*.1.............-**.***.*......*..*..*...
00.1..*-00**.1-.....***....*.****..*..-....***-..-
-*-.*..1***1.1..-....***....**..*..1**.****1*1-.-.
1.-.*.-..0..--...**..*..-....*.*......1*..**.*....
01.-.1.*.....*.*....**1*.....*.*..-.**.***-*.*....
0---0*.....-.**....*..**.....*........*.1...1*.-..
-1--.-.*1**...**.-0-*.....**.-.....1*-.*.-......**
*--.-1.1.*..-.***...*..-**..-.....*-*...**1....1*1
-..*..-..1.....*.*.*.-..-....***..**......1-*.-1.1
*..*.-.*..**...*...***....**..**.....*..-**..0...1
**.-......***..-11.......**.......****.1...0.-....
--.11..***.*1*..-.**.*....*.......1*.*.-*..*.0.---
**---*.-.1.**.*....**.**..........***....*-1*..-.-
*.--0***.1*1*.*-*.*.***.-***..........*..1****.*.1
....10-....***.......1*.*......-.-*....*.1*...****
**--..*..0-1**.1.........*....*..*....**.-.**..-*-
*.*.*.*....1-*............*.****...1.*.**.--.-.*-1
.**-......0.................**..*.-1*-.-**-.0..*1-
.1....*..-.....-..........**...*.*.--1..1----0.11-
-.....-**.***...-.*......*.*..**-*...--..*-01**--1
**-0**.0.*...*.*..*...........0.**....1*.--0--.--0
**.....******..****........*...-..*....1-01---01*-
*..**....-.....*.*........*..1-...-..-...-1**10--1
-..........-......**..........1...**...*--0-0---.-
*0*.....**........**.**.*.........*...0*1-.-10-*.1
*.*1.-.**.*...**...-*****.*..1.**..*.-*.**.-.-0-*-
-******..1...***....*****.*..*.**..1...**-..11-1..
.11.*......-.*.1*1...1........**.....*.*1.1--0.-.-
-0*...*......****.*........*..**....-....*...-.*1*
.0*............**.*....-...*.1...-......**1.-...**
..*...1**..**....*.-.......**...*..*..**.*.1*-.0*-
...*.-...****........**1....**.**...*.*..1*01**1-0
*-..*............1.-...**....1*.*......*1.*.***1.*
**....***.*..***..*..*..***..**.**.....****.....*-
*.........******...*.......**.*.**.....**.*****...
.*.....................**...*..0**.*.*..-..1*-*1**
..*....**..******..-**.*.*.*.-..1.****-...***.1*1*
.....-.*..*....****..**.*...**.*...*..*..*..*.*...
.*.*...*.*****.....*......*.*.-...*..........*-1..
...1...*..*.........*..*****.....*.*.....*.-.-*1*1
.......*..***.*.....1....***.....*...*****..-.0*1*
........**..*.*...*..-............*.****.-*1.*-0-*

Generation = 40, Population = 698.
.......-.............***...-..-............0......
....................**...*........................
....................*....*.-.......-.....*........
....................*******..........****.*.......
.................*...**......***.....**.*.****.-..
-...............*.*****..***.*****..*.....***..*..
..***..........*....****.*...........**.**.**.*.*.
.*..*.......*..1*....******.......***.....*...*.*.
*..*.....***.**.*...*..*.**.*.***.*..*.****...*...
*..1...*1-..*.....**....*.*.*.**..*****.**....**..
.*.....**.*-....*..*......*.*.*.....*......1.***-.
.*-*...*.**.-....**.....1..**.**...*.........**...
...*.*...*..................*.*...........-.***...
**..**...**............****.*.****.......*.*....*.
*.*.*.....*.......1-..*****.*1.....**...**.*...**.
..-.-......*0.........*..**.....*..-***...1*..**.*
1**...1..***..........*.*****....***.**....-.*....
.*....*..............**.....***.***.....*....*....
*...*.........*-..**.*****......***......*.....*..
..*.........-*...*.....**........**....-....**.-*.
...*..***....*..**..............*.**.........***.*
......*.*..-...*................*.**.......*..**.*
*...--*.*....***.....-.....*......*.....*..*....*.
.*-...*.**1.*..*..........***.****......*-.*..*1.-
.*.....*..*.*.**.............*..*.........**.1**-*
..***..*.*.......*......*.*.*..**.11.....*.*-.**1*
.*......**.....1***.....***....*.***.-...1....**.*
-.*..*-...**...**.*.....**....*.****.**.*.--.***-.
..0.*..-.***....*........***..**..*.****.-.....1-.
..*.*...**.*...*..........*.........*....*.*..1**.
.*..*..***.*..**.***......*..*.*.*******.-....-**.
..*.*.*..**...*.**.*......*......**.*...1....*....
.0....*.*.....****.**.........*..*.**.*..*.....*..
.*.**..........*..***......**......*.......*.*--.*
....*..*.....**...***........***.**...*.*0**....*.
..**...*.***...**..*.****...............-*...*.**.
-1......*..**...**********...*****.....****...***.
.........*.....*..******.**.******....*....**..**.
................*.........**...*......*..*.**-.0*.
.....1.........**.*....-...*.*...*.*........****.*
..............*..*.-..*...........**.**..*.*****.*
....*........*.......*.....*......*...*..***...*..
...........*****..*..**...**................**..*.
....**.....**..............*..**.**........*.**...
.....**..........*..........**...*..........*.....
.***..*......................**..*......*...**....
*.*...*......................***........***...**..
*...........................**..........**..*-*...
.**..*......................**...............*0**.
..**.................-..........................*.

Generation = 50, Population = 449.
.......-...........*...*****..-............-......
..................***.**....**....................
.................*.**.*..*.........-..**...*......
...**...........*.......**....*.......*...*.......
...*.*.........*..*...*.......*............*......
-*...**.........*..*..***..*..*........*..*.......
....*...........*****..............*****.....*....
........*.....***..**.........*....*.**.....*.**..
........**......*...........*.*.....***....**.**..
.......*.**...**............**.............**.*...
.......*.*.................................**.**-.
..1....*....-...........-......***........**..**..
.........**....................*.*........-*...*..
......**.**.*..................*.*........**......
......**..***.....*1............***....*..*.......
..-....*....*.....*..............***...*..*.**....
....................**.......**..**....*.*.-***...
................***...........*...................
..............*.*.*.*.**..........................
................*......................-.......**.
........*.******............................*****.
....*.********............................*..*....
....****..*.*...*....-.................**.*...*...
....*.....-*...*.*....................*.*.*...**..
*.*..............*....................*...*.*****.
*.****........**..*...............1-..*......*.*.*
*.****.....*...*..***....*.*.........-*........*.*
.*....1**.**....*..**...*..*...........*....*..***
*.*....*.*...*.***.**...**..*...*........*.*...-1.
.*.....*.*****..***.....*...*..*..........*.......
**...*....**.*....*.....*.......*.........*.......
****.*.....*.*..*......*....*.....................
......*....****.*.......*.*.......................
***..**....**............*.........*.*....**...*..
................***.........*......*......*.*.*...
**........................*.**......***.1..**...*.
**.......................*..*........*..*....**.**
....................****..***........*.*.**...*...
...................**...*.**..........*..**....1**
.....-............**.**1**.....*...........*......
..................*-**.......*.*..................
..................***.*...***.**............***...
.....*................*....*.................**...
....*.*................*....................**....
....*..*...............*......***...........**....
.....**...................*...**.............**...
...........................*......................
**................................................
**............................................-...
.....................-............................

Generation = 60, Population = 394.
....*..-......................-............-......
...*.*.........**......*...................*......
...*.*........*.*.....*.*..........-.......**.....
....*........***..........................*.**....
..............**....**......***...........*.*.....
-......****....**.*.......................****....
.....**.*..*....****.............**........****...
.....*..*...*....*...............**.........*.*...
......*..**.*..............**.**.*....*.....**....
......**..*.**............*****..*..*.............
.......*..*.*.............**.*...**.*.*...........
..-........**...........-........*................
............*.......*........*..*.*.........**....
........*..........**........**...**..............
........**....*...*...........****..*.............
..-......*....*....**.*........****.*****.........
...........*.*......***............****...***.....
............*....*....................*......*....
...............**.**......................**.**...
...............**.**......................*****...
................*.**..................*...*..**...
........................................****.****.
.....................-................**..**....*.
.**.*.....-.**......................*..*..........
.*.*.......***......................*.*....*....*.
.*.........**.....................--........**.*..
...........**..........................*.....**...
......*.....*.**.******.....*........***........**
....**.......**....**.......*..................1**
....**.......**********.*.*..*....................
...*.*...........*.....****.*.....................
...**....................**.......................
..*..*.............................*..........**..
...***.**..................*......*.**.....**...*.
.....*.*..................*..*...**.*..*.**.....*.
........................*......*.*.*..*.*.......*.
.*..*............**.....*.*.....**.....*.*....**..
.***............*.*.......*.....**.......*........
.***............*.......*.*..**.*.........**.*....
.....-..........*.*.......*..*..*..........*..*...
.................**.....***..*............**......
......................*.......*.*.........***..*..
.....*...............*.*......*.*.........**......
....*.*..............*..*..................**.**..
....*..*..............**......*..*..........*..*..
.....**........................**............**...
..................................................
**................................................
**............................................-...
.....................-............................

Generation = 70, Population = 394.
...****-......................-...................
.*...**..........**...............................
.***...........**..*...............-......*...*...
..*..........****...*.....................****..*.
............**......*.......***...........**.....*
-...........***.....*......................***...*
..........*......**.*.............**.........*....
.........*.*...*..*.*..........**.***.............
........*....*.*...*................**.......*.**.
.......***....*............**.....*..**.......*...
..........***.......**....*.***......**...........
..-...****..**.....**.*.-.....*......*............
......**.**.**.....*...*.*..........*.............
.........*.**.*..**....*.....*.*.**...**..........
......**....**.*.**...**..**....**....**..........
..-...**....**......***.....***.......**..........
........**..**......**.......*....................
.........***......*.**............................
..........**.......***............................
...........*...*....**............................
.**...............................................
*.**.................*..................*.**......
*.*...............***-..................*...**....
*..*......-...............................*..*....
*..*..............*...............................
.***.............*.*..............--..*...........
...........*........*................*.*.......**.
..........*..*....**.................*.*.......*.*
......***.....*..*..........*........*.*........**
.....*..........**........**..*......*.*..........
....*...*.*...*..*.*......**.**....***............
....*......***...***......*****...****............
....*.*..........*...............***..............
..*****........**.*.................**............
....***...........**................*.............
.***............*...*.....**..........*.*.........
.**.*........**.*.**......**.............*........
..***.......*..*..........*..............***......
.****......******..........*.............*..*.....
*....-......*..*..........**..............*.*.....
..*..........**.*.**......**...............*...***
....*..........***.*..........................*..*
.**.**.........*..**......*..*...................*
......*.........***.....*.***..................***
....*..*.........*.....**..**..................**.
.....**.........................................**
..................................................
**................................................
**................................................
.....................-............................

Generation = 80, Population = 338.
...............**.............-...................
...............**...........................**....
..***..............................-........**....
*.................................................
....*..............*........***...................
-.................**.*............................
.**....**....*.*...*.*............................
......***....*..*.................................
.....***.*...*..*.................................
....**..*....*.*...**..........*..................
...*.****....*..*...*.........***.................
..-..**.*............*.*..........*...............
.....**......**....****.......***..**.............
.....***.......**.*.**.*......*...*...............
...**.**...*.**.**..**........*.**....**..........
..-****.**.*.**..**..*.*........**....**..........
..*.*.***.**..**.*....*...........................
.*.*...**.......*.................................
...*..............................................
.....**...................................*.......
..*...*..................................**.......
.*...*..................................**.**.....
.*..........................................*.....
.....**...-.....*...**.....................*.*....
....****.......*..**........................**....
*......*......***....**...........--..............
*..*****.......**..*.**........................**.
.*.............**...*..............***.........*.*
...............**.......***........*.*..........**
..............*.*......*..*.......*..*............
...............**......*.**.......**..............
..*.*..........*........*.........................
...*..............***.............................
.....................*............................
.............*****.....***........................
............*******...*.**................**......
................*...*...................**..*.....
...............**....*...*.............*.*...*....
...............**.....*..*...*........***....*....
.....-.....*....*.......*..............**.....*...
............*.*.***.**..................**....*...
....................**...................**...***.
.....*...............**...................*.**....
....*.*...........**.*****..**....................
....*..*.......***...*..**..**....................
.....**.......***...*.............................
...............*..*...........................*..*
**............................................***.
**.............................................*..
.....................-............................

Generation = 90, Population = 279.
..............................-...................
.................*..........................**....
................**.................-........**....
...............*..................................
................**..........***...................
-.............*...................................
..................................................
...................*..............................
...............*.*.*..............................
..............*.*..*..............................
...............*..***...........*.................
..-..........*..*****..........*.*.**.............
............**....*.........**.....***............
........*...**...............**..*.*.**...........
......****.**..................*...*...*..........
..-...****.***................**.*.....*..........
..*....*..**...**..............*......*...........
.*...**..*...***...............*....**............
.*...**..*...*...................*........*.......
.*......................................*.*.......
.*..*..................................*..........
..*..**................................*...*......
...*...*...............................*****......
...**.*...-............................***........
...*....*.........**..............................
...*.....*........................-1..............
..*......*........***.............................
....*.*.*..................***..................**
.......*.....*......*........*..**...**.........**
............*.*....***.....***..*.***.*...........
................**..*...........*...**............
..................*..............**.**............
..........*......*..*..*..........................
...........**....*****...................*........
..................*.*.**.................*........
...........................*............*.*.......
................*.**.......*.............*........
...............**........................*........
...............*....*...............***...........
.....-...........***................*.*...........
................*.*.................***.......*...
................**..........................**.**.
.....*........**.**.........................**.*..
....*.*........*............**...............**...
....*..*....**.**...........**...............**...
.....**.....**...............................**...
............***.**..........................*.....
**.............*..*........................**.*..*
**..............*.*..........................**..*
.....................-..........................*.

Generation = 100, Population = 196.
................****..........-...................
.............*.*.*..*.......................**....
............***.*....*.............-........**....
...........*....*.***.............................
............***.**.*........***...................
-............*.**.................................
..................................................
..................................................
...................................***............
..................................*...*...........
..................................*....*..........
..-................................**...*.........
.....................................*.**.........
..................................................
.................................*................
..*............**................*.****...........
..*..........*..*................*.....*..........
...*........*....*.....................*..........
............*...*......................*..........
............*...*......................*.*........
.............*.*....................*.****........
......*.......*.....................*...*.........
......*.............................*...*.........
......*...-........................*...*..........
...*.........................*.....****...........
..*.*......................**.*...**..............
...*.............................**..*.**.........
........**.................**.*...*..*..........**
..................................*......*......**
.......................................**.........
................***...............................
................***...............................
...................*...................***........
...................*...................*..........
..................***...................*.........
...........................................***....
...........................................**.....
..................................................
............................................*.....
.....-...........................***........**....
..............*...***.......................*.*...
..............*......................*........**..
.....*.......*.*.....................*..........*.
....*.*......*..............**.......*.......*....
....*..*...*.**.............**...................*
.....**....***..................................**
..................................................
**.........................................**.....
**.........................................*.*....
.....................-......................*.....
