*** Life<Cell> 7x3 ***

Generation = 0, Population = 1.
---
---
---
---
---
-0-
---

Generation = 2, Population = 1.
---
---
---
-0-
---
---
---

Generation = 4, Population = 2.
---
-0-
---
---
---
-0-
---

Generation = 6, Population = 0.
---
---
---
---
---
---
---

Generation = 8, Population = 0.
---
---
---
---
---
---
---

*** Life<Cell> 4x6 ***

Generation = 0, Population = 2.
-0----
------
------
--0---

Generation = 5, Population = 5.
0---0-
-0-0-0
------
------

Generation = 10, Population = 7.
-0-0-0
0-----
-0---0
----0-

Generation = 15, Population = 5.
--0---
-0----
0-0---
---0--

*** Life<Cell> 4x7 ***

Generation = 0, Population = 5.
----0--
-00----
-------
0--0---

Generation = 1, Population = 16.
-000-0-
01100--
0000---
-00-0--

Generation = 2, Population = 7.
--1-0-0
----1--
----0--
---0-0-

Generation = 3, Population = 10.
-0--1--
--10-00
----1--
--0-0-0

Generation = 4, Population = 9.
0-----0
--*1-11
----*--
-0--1--

Generation = 5, Population = 18.
-010--1
01.*1*-
-00-*-0
0-00*0-

*** Life<Cell> 9x5 ***

Generation = 0, Population = 6.
-----
----0
-----
0----
-----
--0--
---0-
----0
---0-

Generation = 1, Population = 10.
----0
---0-
0---0
-0---
0-0--
-0---
-----
---0-
--0--

Generation = 2, Population = 10.
-----
0-0-0
-----
0---0
---0-
-----
-0-0-
----0
-0---

Generation = 3, Population = 12.
0-0-0
-----
--0--
-0---
0-0--
-0---
0----
-----
0-0-0

Generation = 4, Population = 8.
-----
0---0
---0-
--0--
---0-
0----
-----
--0-0
-----

Generation = 5, Population = 16.
0---0
-0---
0----
-0-0-
0---0
-0-0-
0-0-0
-0---
--0-0

*** Life<Cell> 1x4 ***

Generation = 0, Population = 1.
---0

Generation = 2, Population = 2.
-0-0

Generation = 4, Population = 1.
-0--

*** Life<Cell> 5x8 ***

Generation = 0, Population = 17.
-0--0---
-00-00--
00----00
0-------
00-00-00

Generation = 10, Population = 18.
.*...-*.
-.*.1*1-
-*.0.-.1
1*-***11
..1.*-..

Generation = 20, Population = 10.
.....***
....**.*
-.......
....**1.
.....*..

Generation = 30, Population = 0.
........
........
-.......
........
........

Generation = 40, Population = 0.
........
........
-.......
........
........

Generation = 50, Population = 0.
........
........
-.......
........
........

*** Life<Cell> 3x6 ***

Generation = 0, Population = 6.
--0-0-
0---0-
-0--0-

Generation = 9, Population = 10.
1*0-*.
*11*-0
-.-*..

Generation = 18, Population = 7.
..-*..
.*..10
..***.

*** Life<Cell> 3x5 ***

Generation = 0, Population = 4.
-0---
--0-0
---0-

Generation = 3, Population = 3.
-----
-0---
0---0

Generation = 6, Population = 4.
-0---
0-0--
---0-

Generation = 9, Population = 3.
0---0
---0-
-----

*** Life<Cell> 2x6 ***

Generation = 0, Population = 3.
0-0---
--0---

Generation = 5, Population = 6.
1-10.0
.-.01-

Generation = 10, Population = 5.
**.0.0
*-.-.-

*** Life<Cell> 1x8 ***

Generation = 0, Population = 3.
-----000

Generation = 50, Population = 1.
..-...-1

Generation = 100, Population = 1.
..-...-1

*** Life<Cell> 3x2 ***

Generation = 0, Population = 3.
--
00
-0

Generation = 10, Population = 0.
..
.-
-.

Generation = 20, Population = 0.
..
.-
-.

*** Life<Cell> 10x7 ***

Generation = 0, Population = 5.
----0--
-------
----0-0
-------
---0---
-------
-0-----
-------
-------
-------

Generation = 3, Population = 22.
-0-0---
---0---
-01*0--
--00000
---0*-1
----000
-------
-0-----
0-0----
-0-----

Generation = 6, Population = 19.
0-1.*1-
--11---
*1..--0
--10---
0-0-.0-
-------
--11*--
-------
----1-0
-------

Generation = 9, Population = 32.
01.*.*-
011.1*-
.*..-0-
-11*-*0
1-1-.-*
001*0-0
0-.*.-1
-0-0---
--0----
---0---

Generation = 12, Population = 27.
--.*..-
0*..*.0
*...---
1*..-.0
.1-**-.
11.*100
-.....*
-0*.*1*
0--.--1
---0---

Generation = 15, Population = 26.
--....0
-*.***-
*...*-0
-...-.1
**-..-.
.-..*11
**....*
--*..-.
-0-.1-*
00*-*-*

*** Life<Cell> 3x2 ***

Generation = 0, Population = 1.
--
--
-0

Generation = 1, Population = 2.
--
-0
0-

Generation = 2, Population = 1.
-0
--
--

Generation = 3, Population = 2.
0-
-0
--

Generation = 4, Population = 1.
--
--
-0

Generation = 5, Population = 2.
--
-0
0-

Generation = 6, Population = 1.
-0
--
--

Generation = 7, Population = 2.
0-
-0
--

Generation = 8, Population = 1.
--
--
-0

Generation = 9, Population = 2.
--
-0
0-

Generation = 10, Population = 1.
-0
--
--

*** Life<Cell> 7x4 ***

Generation = 0, Population = 1.
----
----
----
---0
----
----
----

Generation = 1, Population = 3.
----
----
---0
--0-
---0
----
----

Generation = 2, Population = 4.
----
---0
----
-0-0
----
---0
----

Generation = 3, Population = 7.
---0
--0-
-0--
0---
-0--
--0-
---0

Generation = 4, Population = 1.
----
----
----
-0--
----
----
----

Generation = 5, Population = 4.
----
----
-0--
0-0-
-0--
----
----

*** Life<Cell> 6x9 ***

Generation = 0, Population = 1.
---------
---------
---------
---------
-------0-
---------

Generation = 1, Population = 4.
---------
---------
---------
-------0-
------0-0
-------0-

Generation = 2, Population = 2.
---------
---------
-------0-
---------
-----0---
---------

Generation = 3, Population = 8.
---------
-------0-
------0-0
-----0-0-
----0-0--
-----0---

Generation = 4, Population = 2.
-------0-
---------
---------
---------
---0-----
---------

Generation = 5, Population = 7.
------0-0
-------0-
---------
---0-----
--0-0----
---0-----

Generation = 6, Population = 6.
-----0-0-
---------
---0---0-
---------
-0---0---
---------

Generation = 7, Population = 18.
----0---0
---0-0---
--0-0-0-0
-0-0-0-0-
0-0-0-0--
-0---0---

Generation = 8, Population = 3.
-------0-
---------
-------0-
---------
---0-----
---------

Generation = 9, Population = 9.
------0-0
---------
------0-0
---0---0-
--0-0----
---0-----

Generation = 10, Population = 7.
-----0---
---------
---0-0-0-
---------
-0---0-0-
---------

Generation = 11, Population = 15.
----0-0--
---0---0-
--0-----0
-0-0-----
0-0-0---0
-0---0-0-

Generation = 12, Population = 2.
---------
---------
---0-----
---------
---0-----
---------

Generation = 13, Population = 6.
---------
---0-----
--0-0----
---------
--0-0----
---0-----

Generation = 14, Population = 7.
---0-----
---------
-0-0-0---
---------
-0-0-0---
---------

Generation = 15, Population = 11.
--0-0----
-0---0---
0-----0--
---------
0-----0--
-0-0-0---

Generation = 16, Population = 3.
---------
---------
-------0-
---------
---0---0-
---------

Generation = 17, Population = 10.
---------
-------0-
------0-0
---0-----
--0-0-0-0
---0---0-

Generation = 18, Population = 6.
-------0-
---------
---0-0-0-
---------
-0-----0-
---------

Generation = 19, Population = 15.
------0-0
---0-0---
--0-----0
-0-0-0---
0-0---0-0
-0-----0-

Generation = 20, Population = 4.
---0-----
---------
---0---0-
---------
-------0-
---------
